{
  "project_info": {
    "project_number": "342941330103",
    "firebase_url": "https://press-eat.firebaseio.com",
    "project_id": "press-eat",
    "storage_bucket": "press-eat.appspot.com"
  },
  "client": [
    {
      "client_info": {
        "mobilesdk_app_id": "1:342941330103:android:ed594d14b11fa583",
        "android_client_info": {
          "package_name": "com.mets.presseat"
        }
      },
      "oauth_client": [
        {
          "client_id": "342941330103-uh1mgqui9k3tr4r67rgmna92ttvqkl6k.apps.googleusercontent.com",
          "client_type": 3
        }
      ],
      "api_key": [
        {
          "current_key": "AIzaSyDpCEQh01qRNqcSxIjOuZprQ2vA1XIeFz0"
        }
      ],
      "services": {
        "analytics_service": {
          "status": 1
        },
        "appinvite_service": {
          "status": 1,
          "other_platform_oauth_client": []
        },
        "ads_service": {
          "status": 2
        }
      }
    }
  ],
  "configuration_version": "1"
}